Place,Name,Sex,Age,Country,State,Equipment,Division,BodyweightKg,WeightClassKg,Squat1Kg,Squat2Kg,Squat3Kg,Best3SquatKg,Bench1Kg,Bench2Kg,Bench3Kg,Best3BenchKg,Deadlift1Kg,Deadlift2Kg,Deadlift3Kg,Best3DeadliftKg,TotalKg,Event,BirthDate
1,Isla Mitchinson,F,22,Scotland,,Raw,FR-Jr,46.6,47,95,100,105,105,45,47.5,50,50,100,105,107.5,107.5,262.5,SBD,
1,Molly Clark,F,23,Scotland,,Raw,FR-Jr,50.7,52,112.5,117.5,122.5,122.5,82.5,87.5,-90,87.5,-130,130,-137.5,130,340,SBD,
2,Emily Caton,F,22,England,YNE,Raw,FR-Jr,51,52,-105,110,115,115,55,57.5,60,60,127.5,-135,135,135,310,SBD,
3,Ruth Fowles,F,21,England,YNE,Raw,FR-Jr,50.8,52,90,95,-100,95,60,65,-67.5,65,125,132.5,137.5,137.5,297.5,SBD,
4,Jessica Davies,F,21,England,NM,Raw,FR-Jr,51.7,52,90,95,-97.5,95,52.5,55,57.5,57.5,127.5,135,-142.5,135,287.5,SBD,
1,Caitlin Marie Baxter,F,22,England,YNE,Raw,FR-Jr,56.2,57,145,150.5,155.5,155.5,95,100.5,103,103,150,-157.5,-157.5,150,408.5,SBD,
2,Amelia Fox #1,F,20,England,WM,Raw,FR-Jr,56.3,57,125,135,140,140,62.5,67.5,70,70,165,177.5,188.5,188.5,398.5,SBD,
3,Hannah Matson,F,23,England,NM,Raw,FR-Jr,55.8,57,130,137.5,-140,137.5,75,77.5,80,80,162.5,172.5,180,180,397.5,SBD,
4,Katie Rimell,F,22,England,EM,Raw,FR-Jr,55.9,57,130,137.5,142.5,142.5,57.5,60,-62.5,60,150,160,-167.5,160,362.5,SBD,
5,Ashley Kee,F,22,England,SE,Raw,FR-Jr,56.3,57,105,112.5,120,120,47.5,55,-62.5,55,142.5,152.5,160,160,335,SBD,
6,Molly Walker,F,19,England,EM,Raw,FR-Jr,54.1,57,97.5,107.5,-112.5,107.5,55,-60,-60,55,132.5,140,145,145,307.5,SBD,
7,Noa Holt,F,21,England,NM,Raw,FR-Jr,56.3,57,95,100,105,105,60,-62.5,-62.5,60,127.5,135,140,140,305,SBD,
8,Brooke Steel,F,19,England,NW,Raw,FR-Jr,56.1,57,97.5,-105,-105,97.5,55,-57.5,-57.5,55,135,145,-150,145,297.5,SBD,
9,Sally Nocon,F,20,England,NM,Raw,FR-Jr,56.5,57,92.5,100,105,105,52.5,57.5,-62.5,57.5,120,130,-137.5,130,292.5,SBD,
10,Erin Hogg,F,23,Scotland,,Raw,FR-Jr,55.8,57,-105,-105,105,105,47.5,50,-52.5,50,110,115,120,120,275,SBD,
DQ,Claire Morrissey,F,21,N.Ireland,,Raw,FR-Jr,55,57,105,-107.5,107.5,107.5,-62.5,-62.5,-62.5,,125,132.5,137.5,137.5,,SBD,
1,Lucy Robinson #1,F,21,England,YNE,Raw,FR-Jr,60.4,63,157.5,166,-172.5,166,72.5,77.5,80,80,190,-201,-201,190,436,SBD,
2,Grace Allinson,F,22,England,YNE,Raw,FR-Jr,62.2,63,127.5,132.5,137.5,137.5,85,-87.5,87.5,87.5,175,187.5,-200.5,187.5,412.5,SBD,
3,Kathleen Smartt,F,23,England,YNE,Raw,FR-Jr,62.5,63,137.5,145,150,150,75,80,-82.5,80,165,172.5,-177.5,172.5,402.5,SBD,
4,Beth Clinkscales,F,20,Scotland,,Raw,FR-Jr,62.3,63,140,147.5,152.5,152.5,75,80,82.5,82.5,152.5,162.5,-172.5,162.5,397.5,SBD,
5,Hannah Clayton,F,23,England,SM,Raw,FR-Jr,61.3,63,125,132.5,140,140,75,77.5,80,80,-162.5,162.5,175,175,395,SBD,
6,Esther Mullings,F,20,England,GL,Raw,FR-Jr,62.4,63,145,150,-155,150,75,80,85,85,160,-170,-177.5,160,395,SBD,
7,Molly Smith,F,22,Scotland,,Raw,FR-Jr,62.7,63,140,145,-150,145,75,80,-82.5,80,145,150,-155,150,375,SBD,
8,Emily Cakebread,F,23,England,SE,Raw,FR-Jr,61.3,63,130,140,-147.5,140,72.5,77.5,-82.5,77.5,140,150,152.5,152.5,370,SBD,
9,Anne Burns,F,19,England,YNE,Raw,FR-Jr,61.6,63,130,135,140,140,75,77.5,80,80,140,147.5,-152.5,147.5,367.5,SBD,
10,Miranda Stitt,F,20,Scotland,,Raw,FR-Jr,61.4,63,120,127.5,132.5,132.5,82.5,-87.5,-87.5,82.5,130,140,-150,140,355,SBD,
11,Lara Kemp,F,22,England,WM,Raw,FR-Jr,60.4,63,110,115,120,120,67.5,72.5,75,75,145,150,155,155,350,SBD,
12,Emily Rodrigues,F,19,England,SM,Raw,FR-Jr,62.2,63,110,-115,117.5,117.5,50,52.5,55,55,162.5,172.5,-180,172.5,345,SBD,
13,Jessica Lally,F,21,England,SE,Raw,FR-Jr,61.9,63,127.5,132.5,-135,132.5,60,65,-67.5,65,132.5,140,145,145,342.5,SBD,
14,Alice Marjot,F,21,England,SW,Raw,FR-Jr,60.4,63,-117.5,117.5,125,125,52.5,57.5,-60,57.5,145,155,157.5,157.5,340,SBD,
15,Courtney Brown #1,F,20,England,EM,Raw,FR-Jr,60.9,63,97.5,105,-110,105,70,75,-80,75,132.5,142.5,147.5,147.5,327.5,SBD,
G,Amy Craig,F,22,Scotland,,Raw,FR-Jr,63.5,69,120,130,-140,130,75,80,82.5,82.5,140,150,157.5,157.5,370,SBD,
1,Bettina Hanlon,F,22,England,NW,Raw,FR-Jr,67.9,69,145,155,160,160,90,-92.5,-92.5,90,167.5,177.5,182.5,182.5,432.5,SBD,
2,Clio Lynham,F,22,England,SE,Raw,FR-Jr,67.5,69,152.5,160,165,165,-75,75,80,80,-145,155,162.5,162.5,407.5,SBD,
3,Robyn Gorman,F,21,Scotland,,Raw,FR-Jr,69,69,145,-150,-150,145,70,-72.5,72.5,72.5,-175,175,182.5,182.5,400,SBD,
4,Luciana Grant,F,20,England,EM,Raw,FR-Jr,68.1,69,-142.5,142.5,150,150,80,85,90,90,135,142.5,152.5,152.5,392.5,SBD,
5,Fiona MacDonald,F,20,Scotland,,Raw,FR-Jr,68.8,69,135,-145,145,145,75,80,85,85,140,150,157.5,157.5,387.5,SBD,
6,Kat Cleary,F,22,England,NM,Raw,FR-Jr,68.3,69,137.5,145,-147.5,145,80,-85,-85,80,145,155,160,160,385,SBD,
7,Jaycee Ellis,F,21,England,SW,Raw,FR-Jr,68.5,69,135,140,145,145,65,70,-75,70,140,150,155,155,370,SBD,
8,Chynnah Lockhart,F,19,England,EM,Raw,FR-Jr,68.6,69,125,132.5,140,140,70,77.5,-82.5,77.5,140,147.5,152.5,152.5,370,SBD,
9,Ellie Robins,F,21,England,NM,Raw,FR-Jr,67.3,69,132.5,140,-145,140,75,-80,-80,75,140,147.5,152.5,152.5,367.5,SBD,
10,Catherine Clarke,F,22,England,SW,Raw,FR-Jr,65.6,69,-125,125,132.5,132.5,70,75,80,80,130,140,150,150,362.5,SBD,
11,Katie Williams,F,22,England,SW,Raw,FR-Jr,66.1,69,-105,110,117.5,117.5,-75,75,-82.5,75,150,165,-175,165,357.5,SBD,
12,Kimberley Dodge,F,22,England,EM,Raw,FR-Jr,67.4,69,110,115,120,120,65,70,72.5,72.5,150,165,-175,165,357.5,SBD,
13,Ella Mansfield,F,20,England,YNE,Raw,FR-Jr,67.9,69,115,122.5,-127.5,122.5,70,75,-80,75,150,-160,160,160,357.5,SBD,
14,Rebekah Aitken,F,21,England,EM,Raw,FR-Jr,68.4,69,115,122.5,130,130,65,70,-75,70,-145,145,-152.5,145,345,SBD,
15,Sharon Satish,F,22,England,NM,Raw,FR-Jr,65.6,69,100,105,112.5,112.5,67.5,70,-75,70,130,140,150,150,332.5,SBD,
16,Vicky Catterall,F,20,England,YNE,Raw,FR-Jr,67.7,69,125,135,140,140,65,72.5,-77.5,72.5,75,-140,-150,75,287.5,SBD,
1,Naomi James,F,22,England,GL,Raw,FR-Jr,74.3,76,150,160,170,170,77.5,82.5,85,85,187.5,200,210.5,210.5,465.5,SBD,
2,Millie Mabbutt,F,22,England,SW,Raw,FR-Jr,75.1,76,152.5,160,167.5,167.5,80,85,87.5,87.5,155,167.5,172.5,172.5,427.5,SBD,
3,Aimee Guthrie,F,20,Scotland,,Raw,FR-Jr,73.2,76,130,140,142.5,142.5,95,100,105,105,155,167.5,172.5,172.5,420,SBD,
4,Grace Howse,F,22,England,EM,Raw,FR-Jr,75.3,76,135,142.5,-150,142.5,95,-100,100,100,160,167.5,-180,167.5,410,SBD,
5,Charleigh Lacey,F,21,England,SE,Raw,FR-Jr,72.4,76,135,145,-150,145,80,85,-87.5,85,165,177.5,-182.5,177.5,407.5,SBD,
6,Emilia Martin,F,18,England,SE,Raw,FR-Jr,74.1,76,127.5,137.5,142.5,142.5,77.5,82.5,-87.5,82.5,167.5,177.5,182.5,182.5,407.5,SBD,
7,Tara Tattan-Birch,F,22,England,GL,Raw,FR-Jr,74.8,76,132.5,140,145,145,82.5,87.5,90,90,150,160,170,170,405,SBD,
8,Libby Rubin,F,18,Wales,,Raw,FR-Jr,71.8,76,135,142.5,147.5,147.5,67.5,72.5,75,75,170,-175,175,175,397.5,SBD,
9,Jana Buchan,F,22,Scotland,,Raw,FR-Jr,74.2,76,132.5,140,145,145,70,75,-80,75,155,165,175,175,395,SBD,
10,Camila Cardwell,F,22,England,GL,Raw,FR-Jr,75.3,76,122.5,130,135,135,70,75,-77.5,75,155,167.5,175,175,385,SBD,
11,Kate Mitchell,F,21,England,NM,Raw,FR-Jr,74.8,76,142.5,152.5,157.5,157.5,50,57.5,-62.5,57.5,145,155,160,160,375,SBD,
12,Qian Yu Phang,F,19,England,GL,Raw,FR-Jr,76,76,100,110,120,120,90,95,100,100,100,110,120,120,340,SBD,
1,Erholove Izobodo-John,F,21,England,YNE,Raw,FR-Jr,83.5,84,197.5,207.5,215,215,90,95,97.5,97.5,230,242.5,250,250,562.5,SBD,
2,Melina Irawo,F,22,England,GL,Raw,FR-Jr,83.2,84,175,185,192.5,192.5,112.5,118,123,123,205,215,222.5,222.5,538,SBD,
3,Samantha Edgar,F,23,Scotland,,Raw,FR-Jr,79.6,84,140,147.5,152.5,152.5,77.5,80,-82.5,80,170,185,-192.5,185,417.5,SBD,
1,Harriet Waite,F,21,England,EM,Raw,FR-Jr,95.1,84+,185,195,201,201,77.5,85,90,90,175,190,-200,190,481,SBD,
2,Caitlin Davies,F,22,Wales,,Raw,FR-Jr,131,84+,165,172.5,177.5,177.5,82.5,87.5,90,90,160,170,-175,170,437.5,SBD,
3,Oliwia Kozorys,F,21,England,GL,Raw,FR-Jr,102.9,84+,137.5,147.5,157.5,157.5,75,82.5,-85,82.5,-155,162.5,172.5,172.5,412.5,SBD,
NS,Timon Schagon,M,,England,SE,Raw,MR-Jr,,,,,,,,,,,,,,,,SBD,
1,Charlie Woods,M,22,England,SE,Raw,MR-Jr,58.1,59,147.5,155,162.5,162.5,97.5,105,110,110,180,195,202.5,202.5,475,SBD,
2,Bailey James,M,21,Wales,,Raw,MR-Jr,58.3,59,150,160,165,165,95,102.5,105,105,180,190,-200,190,460,SBD,
1,Sammy Aboagye-Kodjoe,M,21,England,GL,Raw,MR-Jr,64.4,66,202.5,212.5,220,220,115,120,122.5,122.5,237.5,252.5,255,255,597.5,SBD,
2,Benedict Grant,M,21,England,SW,Raw,MR-Jr,65.4,66,210,220.5,-225.5,220.5,130,135,-137.5,135,215,232.5,240,240,595.5,SBD,
3,Abdul Wajid Butt,M,21,England,GL,Raw,MR-Jr,65.4,66,192.5,202.5,-207.5,202.5,130,135,-137.5,135,225,240,-262.5,240,577.5,SBD,
4,Phenyo Botlhoko,M,22,England,NW,Raw,MR-Jr,65.7,66,172.5,185,192.5,192.5,112.5,115,117.5,117.5,230,245,255,255,565,SBD,
5,Santosh Guru,M,22,England,EM,Raw,MR-Jr,64.7,66,172.5,185,190,190,115,120,-125,120,215,230,235,235,545,SBD,
6,Oliver Perkins,M,20,England,SE,Raw,MR-Jr,65.3,66,175,185,-190,185,105,110,115,115,-245,245,-265,245,545,SBD,
7,Ammar Aliff Bin Amir,M,19,England,NW,Raw,MR-Jr,65.9,66,185,195,-202.5,195,115,120,125,125,220,-230,-230,220,540,SBD,
8,Ryan Yarnell,M,18,England,EM,Raw,MR-Jr,65.8,66,165,177.5,187.5,187.5,102.5,107.5,115,115,210,220,232.5,232.5,535,SBD,
9,Martin Nguyen #1,M,22,England,SW,Raw,MR-Jr,65.8,66,155,162.5,167.5,167.5,140,145.5,-148,145.5,190,-192.5,,190,503,SBD,
1,Brandon Teh,M,22,England,EM,Raw,MR-Jr,70.7,74,210,222.5,230,230,137.5,142.5,145,145,247.5,262.5,272.5,272.5,647.5,SBD,
2,Nathan McDowell,M,21,England,EM,Raw,MR-Jr,72.9,74,222.5,232.5,240,240,140,145,147.5,147.5,240,250,260,260,647.5,SBD,
3,Ivan Dela Cruz,M,19,England,NW,Raw,MR-Jr,73.5,74,197.5,207.5,215,215,135,-140,-140,135,267.5,280,290,290,640,SBD,
4,Oscar Birch,M,21,England,YNE,Raw,MR-Jr,73.3,74,210,225,230,230,120,127.5,132.5,132.5,235,255,-267.5,255,617.5,SBD,
5,Joshua Darne,M,19,England,SM,Raw,MR-Jr,73.7,74,202.5,210,217.5,217.5,135,145,-150,145,225,235,240,240,602.5,SBD,
6,Joseph Patrick Kelsey,M,22,England,YNE,Raw,MR-Jr,74,74,200,212.5,220,220,135,140,-142.5,140,220,232.5,-240,232.5,592.5,SBD,
7,Renzo Binas,M,21,England,SW,Raw,MR-Jr,72,74,192.5,200,205,205,105,110,-115,110,-265,265,275,275,590,SBD,
8,Samuel Walker,M,18,England,EM,Raw,MR-Jr,73.5,74,185,197.5,205,205,130,-135,-140,130,235,250,-260,250,585,SBD,
9,Louis Fowler,M,20,England,WM,Raw,MR-Jr,73.2,74,195,205,210,210,125,130,-135,130,212.5,227.5,235,235,575,SBD,
10,Addy Moraes,M,20,Wales,,Raw,MR-Jr,72.4,74,185,200,-207.5,200,112.5,120,-125,120,227.5,245,-255,245,565,SBD,
11,Tom Lowe,M,21,England,NW,Raw,MR-Jr,72.3,74,180,190,197.5,197.5,127.5,135,140,140,210,225,-232.5,225,562.5,SBD,
12,Jake Cazin-Meyer,M,18,England,GL,Raw,MR-Jr,73.3,74,175,190,200,200,110,117.5,122.5,122.5,210,225,240,240,562.5,SBD,
13,Adam Hibbert,M,20,England,NW,Raw,MR-Jr,72.8,74,195,205,210,210,97.5,105,107.5,107.5,225,240,-245,240,557.5,SBD,
14,Samuel Kaye,M,19,England,GL,Raw,MR-Jr,69.8,74,-160,170,180,180,115,122.5,130,130,215,227.5,242.5,242.5,552.5,SBD,
15,Kai Gajewiak,M,23,England,SW,Raw,MR-Jr,69.6,74,185,192.5,200,200,120,127.5,132.5,132.5,195,202.5,210,210,542.5,SBD,
16,Caden Otter,M,21,England,WM,Raw,MR-Jr,70.7,74,-180,180,192.5,192.5,100,105,-107.5,105,230,-245,-250,230,527.5,SBD,
17,Thomas Huitson,M,21,England,EM,Raw,MR-Jr,73.6,74,150,160,-175,160,110,117.5,125,125,200,220,240,240,525,SBD,
18,Oliver Minshall,M,19,Wales,,Raw,MR-Jr,72.2,74,180,190,200,200,105,112.5,117.5,117.5,205,-217.5,-225,205,522.5,SBD,
19,Rocklan Harrison,M,,England,SW,Raw,MR-Jr,72.6,74,185,197.5,-200,197.5,-107.5,112.5,-120,112.5,200,207.5,212.5,212.5,522.5,SBD,
20,Charlie Thomson,M,21,England,SW,Raw,MR-Jr,73.5,74,175,185,-200,185,100,107.5,-110,107.5,-75,75,,75,367.5,SBD,
1,Joey Awala,M,21,England,NM,Raw,MR-Jr,82.3,83,235,250,-257.5,250,160,162.5,165,165,295,315,328.5,328.5,743.5,SBD,
2,Matthew Pond,M,,England,NW,Raw,MR-Jr,82.4,83,265,280,291,291,177.5,185,190,190,250,262.5,-270,262.5,743.5,SBD,
3,Max Mansell-Rowe,M,,England,SE,Raw,MR-Jr,82.4,83,235,247.5,257.5,257.5,-145,152.5,-157.5,152.5,300,315,329,329,739,SBD,
4,Max Guo,M,,England,YNE,Raw,MR-Jr,82.3,83,230,245,255,255,167.5,175,177.5,177.5,265,280,287.5,287.5,720,SBD,
5,Peter Young #1,M,,Scotland,,Raw,MR-Jr,81.6,83,235,250,260,260,152.5,157.5,160,160,275,287.5,292.5,292.5,712.5,SBD,
6,Joel Wilson,M,,England,WM,Raw,MR-Jr,82.4,83,240,250,260,260,145,150,-157.5,150,285,300,-317.5,300,710,SBD,
7,Joseph Tang,M,,England,NW,Raw,MR-Jr,82.4,83,220,232.5,235,235,152.5,157.5,160,160,265,285,292.5,292.5,687.5,SBD,
8,Manson Adagu,M,,England,SW,Raw,MR-Jr,81.1,83,227.5,240,250,250,155,-160,-160,155,260,262.5,280,280,685,SBD,
9,Hani Tabbara,M,,England,WM,Raw,MR-Jr,82.3,83,232.5,242.5,250,250,132.5,-137.5,-137.5,132.5,280,292.5,-305,292.5,675,SBD,
10,Matt Burson,M,,England,SE,Raw,MR-Jr,82,83,222.5,237.5,250,250,140,147.5,152.5,152.5,232.5,250,260,260,662.5,SBD,
11,Aaron Hoxhellari,M,,England,SE,Raw,MR-Jr,82.5,83,205,222.5,232.5,232.5,132.5,137.5,142.5,142.5,255,275,-287.5,275,650,SBD,
12,Jamie Ruffle,M,,England,SW,Raw,MR-Jr,81,83,197.5,210,220,220,137.5,142.5,147.5,147.5,250,270,-285,270,637.5,SBD,
13,Samuel Rayson,M,,England,SW,Raw,MR-Jr,83,83,210,217.5,225,225,120,125,-127.5,125,260,270,280,280,630,SBD,
14,Luke Paranal,M,,England,EM,Raw,MR-Jr,82.6,83,192.5,210,220,220,115,125,-130,125,262.5,282.5,-300,282.5,627.5,SBD,
15,Zach Smith #18,M,,England,EM,Raw,MR-Jr,76.7,83,195,202.5,207.5,207.5,127.5,132.5,-137.5,132.5,245,265,-280,265,605,SBD,
1,Nathan Gevao,M,,England,GL,Raw,MR-Jr,90.7,93,267.5,285,295,295,172.5,180,185,185,310,327.5,335,335,815,SBD,
2,Jack Hopkins,M,,England,SW,Raw,MR-Jr,92.6,93,252.5,267.5,277.5,277.5,180,190,-195,190,290,310,322.5,322.5,790,SBD,
3,Nathaniel Massiah,M,,England,GL,Raw,MR-Jr,92.9,93,255,270,280,280,165,170,175,175,300,315,325,325,780,SBD,
4,Oliver Pickwell,M,,England,SW,Raw,MR-Jr,93,93,247.5,262.5,270,270,160,167.5,170,170,305,325,-342.5,325,765,SBD,
5,Samuel Cook #1,M,,England,SM,Raw,MR-Jr,91.4,93,242.5,260,272.5,272.5,137.5,147.5,-152.5,147.5,275,295,310,310,730,SBD,
6,Folahan Adelakun,M,,Scotland,,Raw,MR-Jr,92.6,93,245,260,267.5,267.5,130,135,137.5,137.5,285,305,-310,305,710,SBD,
7,Theo Goff,M,,England,SW,Raw,MR-Jr,91.3,93,220,240,250,250,155,-170,170,170,260,280,-290,280,700,SBD,
8,Chomba Mumba,M,,England,NM,Raw,MR-Jr,85.9,93,215,227.5,235,235,155,162.5,-167.5,162.5,275,290,-302.5,290,687.5,SBD,
9,Harry French,M,,England,SE,Raw,MR-Jr,88.1,93,205,217.5,225,225,147.5,155,157.5,157.5,280,300,-310,300,682.5,SBD,
10,Ilhan Omar Nur Azam,M,,Scotland,,Raw,MR-Jr,91.2,93,215,227.5,237.5,237.5,132.5,140,145,145,270,287.5,297.5,297.5,680,SBD,
11,Asish Biju,M,,England,YNE,Raw,MR-Jr,93,93,230,245,250,250,150,157.5,-160,157.5,255,270,-275,270,677.5,SBD,
12,Thomas Scott,M,,Scotland,,Raw,MR-Jr,91.7,93,217.5,230,240,240,140,145,150,150,265,285,-300,285,675,SBD,
13,Alex Ewen,M,,England,SW,Raw,MR-Jr,92.1,93,225,235,245,245,150,160,-165,160,255,270,-285,270,675,SBD,
14,Ethan Jones,M,,Wales,,Raw,MR-Jr,83.9,93,205,215,220,220,-142.5,142.5,150,150,265,280,295,295,665,SBD,
15,Brandon Sewell,M,,England,YNE,Raw,MR-Jr,91.6,93,230,245,252.5,252.5,130,140,142.5,142.5,230,250,260,260,655,SBD,
16,Dominic King,M,,England,NM,Raw,MR-Jr,92,93,222.5,237.5,250,250,132.5,140,145,145,235,250,260,260,655,SBD,
17,Isaak Nathan,M,,England,EM,Raw,MR-Jr,90.5,93,230,240,250,250,122.5,130,-135,130,242.5,252.5,-260,252.5,632.5,SBD,
18,Rob Parkin,M,,England,YNE,Raw,MR-Jr,90.3,93,222.5,235,-245,235,117.5,122.5,125,125,242.5,257.5,270,270,630,SBD,
DQ,Jack Waters,M,,England,YNE,Raw,MR-Jr,89.7,93,210,222.5,230,230,-150,-157.5,-157.5,,250,270,-282.5,270,,SBD,
1,Charlie Kidd,M,,England,SM,Raw,MR-Jr,104.1,105,275,287.5,295,295,162.5,170,175,175,295,315,322.5,322.5,792.5,SBD,
2,Sami Zaman,M,,England,SM,Raw,MR-Jr,97.7,105,250,260,265,265,160,167.5,-172.5,167.5,320,335.5,340,340,772.5,SBD,
3,Louis Hanlan,M,,England,SW,Raw,MR-Jr,104.4,105,247.5,262.5,270,270,177.5,185,187.5,187.5,290,307.5,315,315,772.5,SBD,
4,Thomas Kenchington,M,,England,YNE,Raw,MR-Jr,103,105,260,-272.5,275,275,165,175,180,180,280,295,-310,295,750,SBD,
5,Joe Moore #1,M,,England,GL,Raw,MR-Jr,102.6,105,230,245,255,255,160,167.5,172.5,172.5,285,305,320,320,747.5,SBD,
6,James Laidlaw,M,,Scotland,,Raw,MR-Jr,104.1,105,235,250,262.5,262.5,155,-162.5,162.5,162.5,285,305,320,320,745,SBD,
7,Anthony Vella,M,,England,GL,Raw,MR-Jr,103.5,105,240,255,265,265,162.5,170,172.5,172.5,270,290,305,305,742.5,SBD,
8,Kylian Delaplassette,M,,England,SW,Raw,MR-Jr,104.1,105,250,262.5,267.5,267.5,160,167.5,170,170,275,295,-300,295,732.5,SBD,
9,Imran Fulat,M,,England,GL,Raw,MR-Jr,103.5,105,255,267.5,275,275,160,167.5,172.5,172.5,255,275,-285,275,722.5,SBD,
10,Ben Cullen,M,,England,NW,Raw,MR-Jr,104,105,257.5,275,285,285,165,175,-177.5,175,250,262.5,-270,262.5,722.5,SBD,
11,Liam Collins #1,M,,England,SM,Raw,MR-Jr,104.1,105,250,265,275,275,150,157.5,-160,157.5,260,277.5,290,290,722.5,SBD,
12,Andrew Wallace #1,M,,Scotland,,Raw,MR-Jr,95.3,105,225,240,250,250,165,175,180,180,262.5,280,290,290,720,SBD,
13,Adam Pulman,M,,England,SE,Raw,MR-Jr,103.3,105,247.5,260,267.5,267.5,-145,145,-152.5,145,270,290,-305,290,702.5,SBD,
14,Jesse Meaker,M,,England,YNE,Raw,MR-Jr,98.4,105,225,237.5,245,245,152.5,160,162.5,162.5,275,292.5,-305,292.5,700,SBD,
15,Julian Wilson,M,,Isle of Man,,Raw,MR-Jr,102.5,105,220,232.5,240,240,150,155,160,160,265,285,300,300,700,SBD,
16,Ben Rhodes,M,,England,YNE,Raw,MR-Jr,103,105,227.5,242.5,252.5,252.5,160,167.5,172.5,172.5,257.5,275,-285,275,700,SBD,
17,Finley Jones,M,,England,YNE,Raw,MR-Jr,100.1,105,240,-252.5,252.5,252.5,160,-167.5,-167.5,160,265,285,-300,285,697.5,SBD,
18,Gabriel Rowland,M,,England,YNE,Raw,MR-Jr,101.7,105,215,225,235,235,150,157.5,-162.5,157.5,260,280,300,300,692.5,SBD,
19,Alex Wesley,M,,England,SE,Raw,MR-Jr,102.6,105,252.5,267.5,272.5,272.5,115,122.5,-130,122.5,255,275,290,290,685,SBD,
20,Kacper Curylo,M,,England,SM,Raw,MR-Jr,102,105,-275,275,-290,275,150,155,160,160,235,245,-255,245,680,SBD,
21,George Nash,M,,England,SM,Raw,MR-Jr,103.9,105,-252.5,252.5,265,265,140,145,-150,145,252.5,270,-280,270,680,SBD,
22,Rudi Norris,M,,England,SM,Raw,MR-Jr,102.7,105,215,227.5,235,235,142.5,150,-155,150,255,275,282.5,282.5,667.5,SBD,
23,Tarrin Wilson,M,,England,YNE,Raw,MR-Jr,104.4,105,222.5,232.5,240,240,147.5,152.5,-157.5,152.5,255,267.5,275,275,667.5,SBD,
24,Christopher Fear,M,,England,NM,Raw,MR-Jr,99.8,105,220,232.5,245,245,137.5,145,147.5,147.5,245,260,272.5,272.5,665,SBD,
25,Jack Presley,M,,England,SW,Raw,MR-Jr,99.5,105,-220,-230,230,230,140,-150,-150,140,260,280,-300,280,650,SBD,
26,Daniel Jackman,M,,England,YNE,Raw,MR-Jr,93.4,105,205,215,222.5,222.5,142.5,150,155,155,237.5,252.5,267.5,267.5,645,SBD,
27,Ieuan Barry,M,,Wales,,Raw,MR-Jr,103.1,105,197.5,212.5,227.5,227.5,150,160,-165,160,230,-247.5,-247.5,230,617.5,SBD,
DQ,Jason Wu,M,,England,GL,Raw,MR-Jr,99.6,105,290,-307.5,310,310,125,132.5,137.5,137.5,-270,-275,-275,,,SBD,
1,Lewis Kelly,M,,Scotland,,Raw,MR-Jr,117.3,120,265,282.5,292.5,292.5,172.5,182.5,185,185,285,310,325,325,802.5,SBD,
2,Josh Berriman,M,,England,YNE,Raw,MR-Jr,118.2,120,275,292.5,305,305,162.5,170,-175,170,287.5,315,-325,315,790,SBD,
3,Finn Wood,M,,England,YNE,Raw,MR-Jr,117.5,120,275,287.5,300,300,155,165,170,170,272.5,285,295,295,765,SBD,
4,Alasdair Wilson,M,,Scotland,,Raw,MR-Jr,110.5,120,267.5,285,300,300,140,145,150,150,270,290,300,300,750,SBD,
5,Oscar Smillie,M,,Scotland,,Raw,MR-Jr,114,120,250,262.5,275,275,150,157.5,160,160,260,277.5,-285,277.5,712.5,SBD,
6,Ian Lucy,M,,England,GL,Raw,MR-Jr,118.8,120,232.5,247.5,260,260,145,152.5,-157.5,152.5,270,292.5,-310,292.5,705,SBD,
7,Conner Scarfe,M,,England,NM,Raw,MR-Jr,113.9,120,245,262.5,267.5,267.5,140,147.5,-152.5,147.5,260,280,-285,280,695,SBD,
8,Josh Smith #36,M,,England,SM,Raw,MR-Jr,109.4,120,227.5,235,242.5,242.5,157.5,167.5,172.5,172.5,252.5,265,272.5,272.5,687.5,SBD,
1,Kiran Evans,M,,England,YNE,Raw,MR-Jr,122.8,120+,277.5,290,295,295,167.5,-172.5,172.5,172.5,262.5,275,285,285,752.5,SBD,
2,Matthew Henderson #1,M,,England,NW,Raw,MR-Jr,123.9,120+,260,270,277.5,277.5,150,157.5,165,165,300,-312.5,-325,300,742.5,SBD,
NS,Aimee Wilson,F,,Scotland,,Raw,FR-Sj,,,,,,,,,,,,,,,,SBD,
NS,Bea Price,F,,England,SW,Raw,FR-Sj,,,,,,,,,,,,,,,,SBD,
1,Tiffany Pilnikova,F,,England,NW,Raw,FR-Sj,40.9,43,60,65,70,70,35,40,45,45,83,90,95,95,210,SBD,
1,Nisha Mistry,F,,England,NM,Raw,FR-Sj,46.2,47,85,87.5,92.5,92.5,45,50,52.5,52.5,115,120,125,125,270,SBD,
2,Chloe Trent,F,,England,SW,Raw,FR-Sj,46.9,47,92.5,95,97.5,97.5,45,-47.5,47.5,47.5,102.5,110,120.5,120.5,265.5,SBD,
3,Diya Patel,F,,England,SE,Raw,FR-Sj,45.8,47,60,65,67.5,67.5,35,-37.5,37.5,37.5,97.5,102.5,-107.5,102.5,207.5,SBD,
1,Teagan Lindsay,F,,Isle of Man,,Raw,FR-Sj,52,52,77.5,-82.5,82.5,82.5,37.5,40,-45,40,90,97.5,105,105,227.5,SBD,
2,Violet Clarke Waller,F,,England,YNE,Raw,FR-Sj,52,52,75,-80,-80,75,40,42.5,45,45,100,102.5,107.5,107.5,227.5,SBD,
3,Isobel Morris,F,,Isle of Man,,Raw,FR-Sj,50,52,-77.5,77.5,82.5,82.5,30,32.5,-35,32.5,87.5,92.5,100,100,215,SBD,
1,Hannah Karpal,F,,England,SE,Raw,FR-Sj,55,57,90,97.5,102.5,102.5,47.5,50,55,55,122.5,132.5,142.5,142.5,300,SBD,
2,Philippa Moorcroft,F,,England,EM,Raw,FR-Sj,57,57,92.5,100,-107.5,100,50,52.5,55,55,100,105,110,110,265,SBD,
3,Kayleigh Grimble,F,,England,SE,Raw,FR-Sj,55.5,57,82.5,87.5,92.5,92.5,52.5,57.5,60,60,102.5,105,-112.5,105,257.5,SBD,
4,Maisie Lynch,F,,Wales,,Raw,FR-Sj,56.4,57,80,90,95,95,35,40,-42.5,40,97.5,105,110,110,245,SBD,
5,Philippa Newton,F,,England,YNE,Raw,FR-Sj,56.7,57,75,80,-82.5,80,45,47.5,-50,47.5,100,110,115,115,242.5,SBD,
6,Gracie Otto,F,,England,GL,Raw,FR-Sj,53.3,57,67.5,75,80,80,35,40,42.5,42.5,95,100,102.5,102.5,225,SBD,
7,Ruth Weaver,F,,England,NM,Raw,FR-Sj,56.4,57,65,-70,-72.5,65,35,37.5,-40,37.5,85,87.5,90,90,192.5,SBD,
1,Skye Moore,F,,England,EM,Raw,FR-Sj,63,63,140,148.5,-152.5,148.5,80,-82.5,82.5,82.5,152.5,157.5,-162.5,157.5,388.5,SBD,
2,Gaby Watman,F,,England,SE,Raw,FR-Sj,57.5,63,117.5,125,130,130,-57.5,60,62.5,62.5,130,145,-147.5,145,337.5,SBD,
3,Aleena Akhtar,F,,England,SW,Raw,FR-Sj,58,63,95,105,112.5,112.5,50,55,60,60,130,140,147.5,147.5,320,SBD,
1,Emily Byrne,F,,England,WM,Raw,FR-Sj,68.4,69,117.5,127.5,132.5,132.5,72.5,77.5,80.5,80.5,140,152.5,-160.5,152.5,365.5,SBD,
2,Lois Anderton,F,,England,SE,Raw,FR-Sj,68.5,69,135,-140,-143,135,65,67.5,70,70,130,135,140,140,345,SBD,
3,Tillie Belmont,F,,England,SE,Raw,FR-Sj,67.5,69,115,120,125,125,55,60,65,65,115,122.5,-125,122.5,312.5,SBD,
4,Jodie Fox,F,,England,EM,Raw,FR-Sj,68.5,69,105,112.5,120,120,45,50,55,55,125,135,-140,135,310,SBD,
5,Lia Goulding,F,,England,WM,Raw,FR-Sj,67.5,69,100,110,115,115,50,55,-57.5,55,110,122.5,130,130,300,SBD,
6,Leigha Nelson,F,,England,GL,Raw,FR-Sj,66.8,69,90,102.5,107.5,107.5,40,47.5,-50,47.5,102.5,115,120,120,275,SBD,
7,Alice Brooke,F,,England,NM,Raw,FR-Sj,65.6,69,-80,85,-90,85,42.5,45,50,50,92.5,97.5,102.5,102.5,237.5,SBD,
1,Daisy Sullivan,F,,England,YNE,Raw,FR-Sj,72.1,76,105,115,125,125,-60,65,67.5,67.5,110,120,130,130,322.5,SBD,
2,Marah Bahar,F,,Wales,,Raw,FR-Sj,74.6,76,112.5,120,125,125,50,-55,-55,50,117.5,125,132.5,132.5,307.5,SBD,
3,Katie Tatum,F,,England,SE,Raw,FR-Sj,73.4,76,105,-110,-112.5,105,62.5,67.5,72.5,72.5,-122.5,-127.5,127.5,127.5,305,SBD,
1,Eniola Oikoya,F,,England,GL,Raw,FR-Sj,80.6,84,92.5,105,115.5,115.5,40,47.5,50,50,102.5,117.5,125,125,290.5,SBD,
1,Ami Anderson,F,,England,SW,Raw,FR-Sj,88.8,84+,-87.5,87.5,95,95,52.5,55,-60,55,132.5,142.5,145,145,295,SBD,
NS,Ben Maskell,M,,England,SW,Raw,MR-Sj,,,,,,,,,,,,,,,,SBD,
NS,Dyako Zada,M,,England,WM,Raw,MR-Sj,,,,,,,,,,,,,,,,SBD,
NS,Luke Henry,M,,N.Ireland,,Raw,MR-Sj,,,,,,,,,,,,,,,,SBD,
1,Shaan Vijay,M,,England,GL,Raw,MR-Sj,52.9,53,105,115,127.5,127.5,60,62.5,65,65,155,-165,-165,155,347.5,SBD,
2,Ethan Moore #1,M,,England,NW,Raw,MR-Sj,51.3,53,95,105,-110,105,65,67.5,-72.5,67.5,120,138,-150.5,138,310.5,SBD,
1,Vincent Choi,M,,Scotland,,Raw,MR-Sj,58.9,59,170,177.5,185,185,90,95,97.5,97.5,170,187.5,-190,187.5,470,SBD,
2,Alfie Bonsell,M,,England,NM,Raw,MR-Sj,58.2,59,155,165,173,173,92.5,100,105,105,175,190,-205.5,190,468,SBD,
3,Yusuf Rehman,M,,England,NW,Raw,MR-Sj,56.9,59,130,137.5,-140,137.5,-77.5,80,-85,80,182.5,190,200,200,417.5,SBD,
4,Josh Loke,M,,England,NM,Raw,MR-Sj,58.2,59,127.5,135,140,140,65,70,75,75,165,172.5,-185,172.5,387.5,SBD,
5,Noah Williams,M,,England,SE,Raw,MR-Sj,57.7,59,-122.5,122.5,-130,122.5,82.5,-87.5,-87.5,82.5,152.5,162.5,170,170,375,SBD,
6,Harvey Chester,M,,England,SW,Raw,MR-Sj,58.6,59,115,-122.5,122.5,122.5,67.5,70,-72.5,70,160,170,-183,170,362.5,SBD,
7,Luke Broadhurst,M,,England,NW,Raw,MR-Sj,57.9,59,115,117.5,-122.5,117.5,57.5,65,-70,65,140,150,160,160,342.5,SBD,
1,Gregory Pearson,M,,England,YNE,Raw,MR-Sj,65.5,66,190,200.5,206.5,206.5,115,120,-122.5,120,215,230,237.5,237.5,564,SBD,
2,Dorje Weston,M,,England,WM,Raw,MR-Sj,64.2,66,190,201,-208,201,132.5,138.5,-141,138.5,185,195,-210,195,534.5,SBD,
3,Talin Davies,M,,Wales,,Raw,MR-Sj,65.4,66,165,172.5,180,180,115,120,125,125,175,182.5,185,185,490,SBD,
4,Edward Butcher,M,,England,YNE,Raw,MR-Sj,64.5,66,162.5,172.5,-180,172.5,95,100,105,105,180,195,-212.5,195,472.5,SBD,
5,Tom Senior,M,,England,NW,Raw,MR-Sj,64.3,66,160,172.5,180,180,95,102.5,105,105,180,182.5,-200,182.5,467.5,SBD,
6,Jack Whitaker,M,,England,SW,Raw,MR-Sj,63.2,66,142.5,-147.5,147.5,147.5,100,105,110,110,187.5,200,205,205,462.5,SBD,
7,Madalin Ivan,M,,England,SE,Raw,MR-Sj,65.8,66,-157.5,157.5,165,165,90,-100,100,100,170,182.5,-192.5,182.5,447.5,SBD,
8,Donnabhan Rudden,M,,England,YNE,Raw,MR-Sj,64.8,66,155,165,170,170,92.5,-97.5,-97.5,92.5,167.5,180,-187.5,180,442.5,SBD,
9,Leo Conway,M,,England,EM,Raw,MR-Sj,65.5,66,155,-170,170,170,-90,90,-100,90,160,172.5,-182.5,172.5,432.5,SBD,
10,James Lonsdale,M,,England,WM,Raw,MR-Sj,65.7,66,135,145,-147.5,145,82.5,-90,-90,82.5,170,182.5,197.5,197.5,425,SBD,
11,Nojus Judickas,M,,England,SE,Raw,MR-Sj,65.2,66,130,142.5,155,155,-72.5,72.5,77.5,77.5,170,182.5,187.5,187.5,420,SBD,
12,Reagan McKenzie,M,,Scotland,,Raw,MR-Sj,66,66,135,142.5,150,150,65,72.5,-77.5,72.5,170,180,190,190,412.5,SBD,
13,Frederick Pointon,M,,England,SE,Raw,MR-Sj,62.8,66,120,122.5,135,135,77.5,85,87.5,87.5,167.5,180,187.5,187.5,410,SBD,
14,Thomas Jago,M,,Wales,,Raw,MR-Sj,64.7,66,145,152.5,-157.5,152.5,77.5,-82.5,-82.5,77.5,170,177.5,-180,177.5,407.5,SBD,
15,Michael Nicola,M,,England,GL,Raw,MR-Sj,63.6,66,-145,145,147.5,147.5,85,90,-97.5,90,155,162.5,167.5,167.5,405,SBD,
16,Abdul Khan,M,,England,EM,Raw,MR-Sj,65.1,66,117.5,-127.5,-127.5,117.5,87.5,-92.5,92.5,92.5,-155,160,175,175,385,SBD,
17,Prabhat Vishnubhatla,M,,England,SM,Raw,MR-Sj,65,66,130,-135,-135,130,90,92.5,-95,92.5,-155,-160,160,160,382.5,SBD,
DQ,Oliver Barr,M,,England,YNE,Raw,MR-Sj,65.1,66,140,-145,-145,140,100,-105,-105,100,-185,-185,-185,,,SBD,
1,Max Pearson,M,,England,EM,Raw,MR-Sj,73.9,74,190,202.5,207.5,207.5,115,122.5,127.5,127.5,222.5,237.5,250,250,585,SBD,
2,Isaac Wong,M,,England,SE,Raw,MR-Sj,71.8,74,200,212.5,223,223,100,107.5,112.5,112.5,220,235,247.5,247.5,583,SBD,
3,Aidan Wells,M,,England,WM,Raw,MR-Sj,71.8,74,200,210,215,215,102.5,110,-112.5,110,220,232.5,247.5,247.5,572.5,SBD,
4,Harry Davis,M,,England,SM,Raw,MR-Sj,73.4,74,170,182.5,190,190,110,117.5,122.5,122.5,205,220,225,225,537.5,SBD,
5,Fergus Falconer,M,,Scotland,,Raw,MR-Sj,72.8,74,175,190,-200,190,-115,-122.5,122.5,122.5,195,215,222.5,222.5,535,SBD,
6,Yousuf Amilhasan,M,,England,GL,Raw,MR-Sj,70.6,74,170,180,-185,180,105,107.5,110,110,220,232.5,242.5,242.5,532.5,SBD,
7,Yaw Parbey,M,,England,NW,Raw,MR-Sj,72.3,74,155,167.5,180,180,90,100,-110,100,210,235,250,250,530,SBD,
8,Daniel Tamlyn,M,,England,SM,Raw,MR-Sj,73.8,74,162.5,172.5,182.5,182.5,97.5,102.5,107.5,107.5,-207.5,215,230,230,520,SBD,
9,Ben Hollis,M,,England,EM,Raw,MR-Sj,73,74,175,185,-195,185,112.5,117.5,-120,117.5,190,207.5,-217.5,207.5,510,SBD,
10,Guy Rosen,M,,England,GL,Raw,MR-Sj,73,74,182.5,192.5,-200,192.5,90,-95,-95,90,205,215,225,225,507.5,SBD,
11,Ben Nicholls,M,,England,NW,Raw,MR-Sj,73.2,74,177.5,185,190,190,87.5,-92.5,-92.5,87.5,220,230,-235,230,507.5,SBD,
12,Aidan Jenkins,M,,England,YNE,Raw,MR-Sj,73.3,74,165,170,-175,170,100,105,-110,105,220,232.5,-237.5,232.5,507.5,SBD,
13,Marley D'Cruz,M,,England,SM,Raw,MR-Sj,72,74,165,175,-182.5,175,100,105,110,110,190,205,215,215,500,SBD,
14,Jake Helme,M,,Wales,,Raw,MR-Sj,71.5,74,157.5,-165,-165,157.5,-122.5,130,135,135,185,197.5,-207.5,197.5,490,SBD,
15,Billy Beamish,M,,England,GL,Raw,MR-Sj,71.3,74,157.5,167.5,175,175,92.5,97.5,102.5,102.5,185,202.5,210,210,487.5,SBD,
16,Henry Bell,M,,England,EM,Raw,MR-Sj,72,74,157.5,170,177.5,177.5,92.5,97.5,102.5,102.5,170,185,200,200,480,SBD,
17,Hilton Harrison-Smith,M,,England,EM,Raw,MR-Sj,72.5,74,140,150,-155,150,70,77.5,82.5,82.5,195,205,215,215,447.5,SBD,
18,Korey Towey,M,,England,YNE,Raw,MR-Sj,73.7,74,170,177.5,-180,177.5,90,92.5,-95,92.5,177.5,-185,-190,177.5,447.5,SBD,
19,Sami Tabbara,M,,England,SW,Raw,MR-Sj,73.8,74,135,145,155,155,80,85,87.5,87.5,175,187.5,200,200,442.5,SBD,
20,Andre Lombaard,M,,England,EM,Raw,MR-Sj,72.2,74,155,162.5,165,165,92.5,-97.5,-97.5,92.5,165,172.5,180,180,437.5,SBD,
21,Al-Naser Al-Rais,M,,England,NW,Raw,MR-Sj,71.6,74,125,132.5,137.5,137.5,85,-92.5,92.5,92.5,160,170,180,180,410,SBD,
22,Oliver Marston,M,,England,EM,Raw,MR-Sj,72.6,74,142.5,-147.5,147.5,147.5,75,80,-82.5,80,167.5,175,180,180,407.5,SBD,
DQ,Tyler Rigby,M,,England,SW,Raw,MR-Sj,72.1,74,-160,-160,-160,,-85,85,-90,85,160,167.5,172.5,172.5,,SBD,
1,Lucas Williams,M,,Wales,,Raw,MR-Sj,81.5,83,220,227.5,235,235,135,142.5,-145,142.5,266,275,282.5,282.5,660,SBD,
2,Sam Read,M,,England,YNE,Raw,MR-Sj,82.3,83,-215,-227.5,227.5,227.5,135,142.5,-147.5,142.5,235,-255,260,260,630,SBD,
3,Ethan Knight,M,,England,SW,Raw,MR-Sj,83,83,-190,190,-192.5,190,115,122.5,-130,122.5,225,237.5,250,250,562.5,SBD,
4,Alex Negoescu,M,,England,WM,Raw,MR-Sj,80.5,83,-192.5,200,205,205,105,115,120,120,200,215,225,225,550,SBD,
5,Callum Morris,M,,England,NW,Raw,MR-Sj,81.4,83,182.5,197.5,202.5,202.5,100,107.5,110,110,205,220,230,230,542.5,SBD,
6,Kian Fatemifar,M,,England,WM,Raw,MR-Sj,80.1,83,200,210,-217.5,210,100,110,-115,110,200,220,-225,220,540,SBD,
7,Alfie Evans,M,,England,EM,Raw,MR-Sj,81.9,83,185,192.5,197.5,197.5,112.5,-117.5,117.5,117.5,207.5,217.5,225,225,540,SBD,
8,Alby Holland,M,,England,SM,Raw,MR-Sj,82.9,83,-177.5,177.5,187.5,187.5,115,-125,-125,115,227.5,-237.5,-237.5,227.5,530,SBD,
9,Lachlan Peck,M,,England,EM,Raw,MR-Sj,82.7,83,190,197.5,202.5,202.5,95,105,-107.5,105,195,207.5,-220,207.5,515,SBD,
10,William Kendall,M,,England,YNE,Raw,MR-Sj,79.1,83,180,190,-200,190,107.5,112.5,-115,112.5,195,207.5,-217.5,207.5,510,SBD,
11,Owen Visser,M,,England,SE,Raw,MR-Sj,81.8,83,150,160,172.5,172.5,107.5,112.5,-115,112.5,205,215,225,225,510,SBD,
12,Jaiden Woolgrove,M,,England,EM,Raw,MR-Sj,81.9,83,182.5,-190,190,190,125,-130,-130,125,180,187.5,-195,187.5,502.5,SBD,
13,Tar Supanpong,M,,England,YNE,Raw,MR-Sj,83,83,-175,175,182.5,182.5,95,105,-107.5,105,215,-232.5,-235,215,502.5,SBD,
14,Ayonla Oyinloye,M,,England,SW,Raw,MR-Sj,78.9,83,175,187.5,-200,187.5,-95,-100,100,100,190,200,212.5,212.5,500,SBD,
15,Luca Evans,M,,England,SE,Raw,MR-Sj,82.6,83,152.5,160,-165,160,105,110,-112.5,110,210,222.5,230,230,500,SBD,
16,Jacob Lowey,M,,England,NW,Raw,MR-Sj,82,83,160,175,182.5,182.5,87.5,92.5,-95,92.5,190,215,222.5,222.5,497.5,SBD,
17,Thomas Lord,M,,England,NW,Raw,MR-Sj,82.5,83,190,-200,-205,190,95,100,102.5,102.5,195,205,-215,205,497.5,SBD,
18,Dimitris Dimopoulos,M,,England,NW,Raw,MR-Sj,83,83,175,180,185,185,100,105,-107.5,105,190,-200,200,200,490,SBD,
19,Eniola Balogun,M,,England,NM,Raw,MR-Sj,75.7,83,145,-155,-160,145,107.5,112.5,115,115,210,220,-230,220,480,SBD,
20,Sam Carter #3,M,,England,SW,Raw,MR-Sj,83,83,167.5,170,-180,170,95,97.5,-107.5,97.5,200,212.5,-217.5,212.5,480,SBD,
21,Ethan Williams,M,,Wales,,Raw,MR-Sj,80.9,83,155,162.5,-170,162.5,105,110,115,115,177.5,190,-200,190,467.5,SBD,
22,Maks Nalecz,M,,England,WM,Raw,MR-Sj,82.5,83,-150,-150,150,150,90,92.5,-95,92.5,205,220,225,225,467.5,SBD,
23,Alfie Webster,M,,England,YNE,Raw,MR-Sj,81.6,83,145,150,160,160,90,-97.5,-97.5,90,187.5,200,215,215,465,SBD,
24,Eamon Ahmad,M,,England,NW,Raw,MR-Sj,80,83,-170,170,-180,170,70,75,80,80,200,210,-215,210,460,SBD,
25,Sebastian Kaberry,M,,England,NM,Raw,MR-Sj,82.2,83,160,167.5,-175,167.5,80,-85,-85,80,185,200,210,210,457.5,SBD,
DQ,Dominic Grey,M,,England,SE,Raw,MR-Sj,76.2,83,-215,220,-227.5,220,-122.5,-122.5,-122.5,,-210,220,230,230,,SBD,
DQ,Dan Wheeler,M,,England,NW,Raw,MR-Sj,82.8,83,200,-210,-210,200,-125,-125,-125,,-255,255,-260,255,,SBD,
1,Ethan Wilson #2,M,,England,SE,Raw,MR-Sj,93,93,205,212.5,-215,212.5,125,132.5,-135,132.5,250,260,262.5,262.5,607.5,SBD,
2,Mitchell Guppy,M,,England,YNE,Raw,MR-Sj,91.9,93,190,202.5,212.5,212.5,130,137.5,140,140,-225,240,250,250,602.5,SBD,
3,Youssef Gantar,M,,England,SW,Raw,MR-Sj,90.7,93,-197.5,205,212.5,212.5,125,132.5,137.5,137.5,230,245,-255,245,595,SBD,
4,Rufus Guest,M,,England,SE,Raw,MR-Sj,91.9,93,200,210,217.5,217.5,125,-130,130,130,230,245,-257.5,245,592.5,SBD,
5,Gwilym Poyelle,M,,Wales,,Raw,MR-Sj,89.3,93,190,205,210,210,-117.5,122.5,-127.5,122.5,245,-255,255,255,587.5,SBD,
6,Mackenzie Parker-Pierce,M,,Wales,,Raw,MR-Sj,88.1,93,190,200,210,210,127.5,-135,-135,127.5,230,247.5,-262.5,247.5,585,SBD,
7,Oliver Francis,M,,England,SE,Raw,MR-Sj,90.5,93,165,177.5,-190,177.5,117.5,125,-130,125,260,-270,270,270,572.5,SBD,
8,Christopher Justice Acevedo,M,,England,EM,Raw,MR-Sj,92.7,93,195,207.5,-212.5,207.5,125,132.5,137.5,137.5,200,220,-235,220,565,SBD,
9,Jake Tucker #1,M,,England,SE,Raw,MR-Sj,91.3,93,180,192.5,202.5,202.5,112.5,120,125,125,210,225,232.5,232.5,560,SBD,
10,Connor Wadsworth,M,,England,YNE,Raw,MR-Sj,87.1,93,185,205,215,215,105,115,-120,115,205,225,-227.5,225,555,SBD,
11,Dan Wilson,M,,England,NW,Raw,MR-Sj,89.1,93,210,-215,-215,210,105,110,-115,110,235,-240,-240,235,555,SBD,
12,Oscar Spiers,M,,England,SM,Raw,MR-Sj,91.9,93,175,187.5,195,195,100,105,107.5,107.5,215,230,240,240,542.5,SBD,
13,Danny Cottam,M,,England,NW,Raw,MR-Sj,86,93,172.5,180,187.5,187.5,102.5,107.5,110,110,197.5,212.5,217.5,217.5,515,SBD,
14,Ralfs Vackars,M,,England,GL,Raw,MR-Sj,92.1,93,167.5,182.5,192.5,192.5,102.5,115,122.5,122.5,170,185,-195,185,500,SBD,
15,Moxuan Liu,M,,England,GL,Raw,MR-Sj,91.8,93,165,175,185,185,80,90,-95,90,195,207.5,220,220,495,SBD,
16,Ashton Smith,M,,England,SE,Raw,MR-Sj,84.6,93,150,162.5,170,170,92.5,-105,-105,92.5,200,210,222.5,222.5,485,SBD,
17,Finlay Telfer,M,,England,YNE,Raw,MR-Sj,92.3,93,170,-177.5,177.5,177.5,100,105,110,110,170,180,190,190,477.5,SBD,
18,Ethan Owens,M,,England,NW,Raw,MR-Sj,89.8,93,150,160,170,170,95,100,-105,100,190,202.5,-207.5,202.5,472.5,SBD,
1,Nonso Chinye,M,,England,SE,Raw,MR-Sj,104,105,250,265,275.5,275.5,152.5,-160,160,160,310,330.5,343,343,778.5,SBD,
2,Finn O'Farrell,M,,England,SW,Raw,MR-Sj,104.6,105,245,255,260,260,125,132.5,-137.5,132.5,225,235,245,245,637.5,SBD,
3,Oliver Philpot,M,,England,EM,Raw,MR-Sj,96.9,105,200,215,225,225,135,142.5,145,145,220,235,242.5,242.5,612.5,SBD,
4,Patrick Squires,M,,England,NW,Raw,MR-Sj,100,105,205,-207.5,212.5,212.5,135,-145,-145,135,240,250,260,260,607.5,SBD,
5,Reece Fagan,M,,England,EM,Raw,MR-Sj,96.4,105,165,180,190,190,147.5,155,-157.5,155,220,230,240,240,585,SBD,
6,Jack Frisby,M,,England,EM,Raw,MR-Sj,101.7,105,-200,200,-212.5,200,120,127.5,-132.5,127.5,207.5,222.5,237.5,237.5,565,SBD,
7,Brandon Richards,M,,Wales,,Raw,MR-Sj,102.3,105,160,167.5,175,175,102.5,107.5,-110,107.5,192.5,207.5,-220,207.5,490,SBD,
1,Drew Brooks,M,,England,SW,Raw,MR-Sj,119.9,120,-235,235,-245,235,-120,120,-130,120,220,235,242.5,242.5,597.5,SBD,
2,Brandon Lee #10,M,,England,EM,Raw,MR-Sj,118.7,120,200,207.5,215,215,140,150,155,155,207.5,220,-242.5,220,590,SBD,
3,Tom Whinnie,M,,England,YNE,Raw,MR-Sj,114.6,120,175,190,202.5,202.5,112.5,120,-125,120,190,192.5,225,225,547.5,SBD,
4,Ben Harris #1,M,,England,SW,Raw,MR-Sj,118.7,120,195,205,210,210,125,132.5,135,135,130,-132.5,-132.5,130,475,SBD,
1,Joshua Ngoka,M,,England,GL,Raw,MR-Sj,145,120+,262.5,277.5,287.5,287.5,152.5,160,165.5,165.5,295.5,315.5,328,328,781,SBD,
2,Rylan Vining,M,,England,SW,Raw,MR-Sj,135,120+,200,210,220,220,105,115,127.5,127.5,220,-242.5,242.5,242.5,590,SBD,
